{
    "id": "org.kde.angelfish",
    "runtime": "org.kde.Platform",
    "runtime-version": "6.6-kf6preview",
    "sdk": "org.kde.Sdk",
    "base": "io.qt.qtwebengine.BaseApp",
    "base-version": "6.6",
    "command": "angelfish",
    "tags": ["nightly"],
    "desktop-file-name-suffix": " (Nightly)",
    "finish-args": [
        "--share=ipc",
        "--share=network",
        "--socket=pulseaudio",
        "--socket=x11",
        "--socket=wayland",
        "--device=dri",
        "--device=all",
        "--filesystem=xdg-data",
        "--filesystem=xdg-download",
        "--talk-name=org.freedesktop.Notifications",
        "--own-name=org.kde.angelfish"
    ],
    "separate-locales": false,
    "add-extensions": {
        "org.freedesktop.Platform.ffmpeg-full": {
            "directory": "lib/ffmpeg",
            "add-ld-path": ".",
            "version": "23.08"
        }
    },
    "cleanup-commands": [
        "mkdir -p ${FLATPAK_DEST}/lib/ffmpeg"
    ],
    "sdk-extensions": [
        "org.freedesktop.Sdk.Extension.rust-stable"
    ],
    "build-options": {
        "append-path": "/usr/lib/sdk/rust-stable/bin",
        "env": {
            "RUST_BACKTRACE": "1",
            "CARGO_NET_OFFLINE": "true",
            "RUSTFLAGS": "--remap-path-prefix =../"
        }
    },
    "cleanup": [
        "/lib/cmake",
        "/lib/include"
    ],
    "modules": [
        "flatpak/corrosion.json",
        "flatpak/kirigami-addons.json",
        {
            "name": "qcoro",
            "buildsystem": "cmake-ninja",
            "config-opts": ["-DBUILD_TESTING=OFF", "-DCMAKE_BUILD_TYPE=Release"],
            "sources": [
                {
                    "type": "archive",
                    "url": "https://github.com/danvratil/qcoro/archive/refs/tags/v0.10.0.tar.gz",
                    "sha256": "b7c8f00273ad27d85814bf4ec93eb6922c75656800a61d11854d36355a4a1aec"
                }
            ]
        },
        {
            "name": "futuresql",
            "buildsystem": "cmake-ninja",
            "config-opts": [
                "-DBUILD_TESTING=OFF",
                "-DCMAKE_BUILD_TYPE=Release",
                "-DBUILD_WITH_QT6=ON",
                "-DQT_MAJOR_VERSION=6"
            ],
            "sources": [
                {
                    "type": "archive",
                    "url": "https://download.kde.org/stable/futuresql/futuresql-0.1.1.tar.xz",
                    "sha256": "e44ed8d5a9618b3ca7ba2983ed9c5f7572e6e0a5b199f94868834b71ccbebd43"
                }
            ]
        },
        {
            "name": "angelfish",
            "buildsystem": "cmake-ninja",
            "config-opts": ["-DBUILD_TESTING=OFF", "-DCMAKE_BUILD_TYPE=Release", "-DQt6Feedback_DIR=/app/lib/cmake/Qt6Feedback"],
            "builddir": true,
            "build-options": {
                "env": {
                    "CARGO_HOME": "/run/build/angelfish/cargo"
                }
            },
            "sources": [
                {
                    "type": "dir",
                    "path": ".",
                    "skip": [".git"]
                },
                "flatpak/generated-sources.json"
            ]
        }
    ]
}
