{
   "build-options" : {
      "env" : {
         "CARGO_HOME" : "/run/build/corrosion/cargo"
      }
   },
   "buildsystem" : "cmake-ninja",
   "cleanup" : [
      "/app"
   ],
   "config-opts" : [
      "-DCORROSION_INSTALL_EXECUTABLE=OFF",
      "-DCORROSION_BUILD_TESTS=OFF",
      "-DCORROSION_DEV_MODE=OFF"
   ],
   "name" : "corrosion",
   "sources" : [
      {
         "tag" : "v0.4.5",
         "commit": "be76480232216a64f65e3b1d9794d68cbac6c690",
         "type" : "git",
         "url" : "https://github.com/AndrewGaspar/corrosion"
      }
   ]
}
